1.0,2.0,0.0,1.0
3.1,4.1000000000000005,2.0,3.1
5.2,6.2,4.1000000000000005,5.2
7.300000000000001,8.3,6.2,7.300000000000001
9.4,10.3,8.3,9.4
11.5,12.4,10.3,11.5
13.700000000000001,14.600000000000001,12.4,13.700000000000001
15.8,16.7,14.600000000000001,15.8
17.900000000000002,18.900000000000002,16.7,17.900000000000002
20.1,21.1,18.900000000000002,20.1
22.200000000000003,23.1,21.1,22.200000000000003
24.3,25.1,23.1,24.3
26.3,27.200000000000003,25.1,26.3
28.400000000000002,29.200000000000003,27.200000000000003,28.400000000000002
30.5,31.3,29.200000000000003,30.5
32.7,33.4,31.3,32.7
34.800000000000004,35.6,33.4,34.800000000000004
36.9,37.7,35.6,36.9
39.1,39.900000000000006,37.7,39.1
41.300000000000004,42.0,39.900000000000006,41.300000000000004
43.5,44.2,42.0,43.5
45.7,46.400000000000006,44.2,45.7
47.900000000000006,48.6,46.400000000000006,47.900000000000006
50.1,50.800000000000004,48.6,50.1
52.300000000000004,52.900000000000006,50.800000000000004,52.300000000000004
54.5,55.1,52.900000000000006,54.5
62.900000000000006,63.6,55.1,62.900000000000006
64.9,65.7,63.6,64.9
66.9,67.60000000000001,65.7,66.9
68.9,69.7,67.60000000000001,68.9
70.9,71.60000000000001,69.7,70.9
72.8,73.5,71.60000000000001,72.8
74.8,75.0,73.5,74.8
